{
	"info": {
		"_postman_id": "ee4ff144-7ca1-4675-844f-c7e323cc44aa",
		"name": "CedricPostmanCollection",
		"schema": "https://schema.getpostman.com/json/collection/v2.1.0/collection.json"
	},
	"item": [
		{
			"name": "http://172.16.0.234:8080/responsables",
			"protocolProfileBehavior": {
				"disabledSystemHeaders": {
					"content-length": true
				}
			},
			"request": {
				"method": "POST",
				"header": [
					{
						"key": "email",
						"value": "responsable@gmail.com",
						"type": "default"
					},
					{
						"key": "motdepasse",
						"value": "responsable",
						"type": "default"
					}
				],
				"url": {
					"raw": "http://172.16.0.234:8080/responsables",
					"protocol": "http",
					"host": [
						"172",
						"16",
						"0",
						"234"
					],
					"port": "8080",
					"path": [
						"responsables"
					]
				}
			},
			"response": []
		},
		{
			"name": "http://172.16.0.234:8080/responsable",
			"protocolProfileBehavior": {
				"disabledSystemHeaders": {
					"content-length": true
				}
			},
			"request": {
				"method": "GET",
				"header": [
					{
						"key": "email",
						"value": "responsable@gmail.com",
						"type": "default"
					},
					{
						"key": "motdepasse",
						"value": "responsable",
						"type": "default"
					}
				],
				"url": {
					"raw": "http://172.16.0.234:8080/responsable",
					"protocol": "http",
					"host": [
						"172",
						"16",
						"0",
						"234"
					],
					"port": "8080",
					"path": [
						"responsable"
					]
				}
			},
			"response": []
		},
		{
			"name": "http://172.16.0.234:8080/avions",
			"protocolProfileBehavior": {
				"disabledSystemHeaders": {
					"content-length": true
				}
			},
			"request": {
				"method": "GET",
				"header": [
					{
						"key": "email",
						"value": "responsable@gmail.com",
						"type": "default",
						"disabled": true
					},
					{
						"key": "motdepasse",
						"value": "responsable",
						"type": "default",
						"disabled": true
					}
				],
				"url": {
					"raw": "http://172.16.0.234:8080/avions",
					"protocol": "http",
					"host": [
						"172",
						"16",
						"0",
						"234"
					],
					"port": "8080",
					"path": [
						"avions"
					]
				}
			},
			"response": []
		},
		{
			"name": "http://172.16.0.234:8080/avions",
			"protocolProfileBehavior": {
				"disabledSystemHeaders": {
					"connection": true,
					"accept-encoding": true,
					"content-length": true,
					"host": true,
					"user-agent": true,
					"accept": true
				}
			},
			"request": {
				"method": "GET",
				"header": [
					{
						"key": "email",
						"value": "responsable@gmail.com",
						"type": "default"
					},
					{
						"key": "motdepasse",
						"value": "responsable",
						"type": "default"
					}
				],
				"url": {
					"raw": "http://172.16.0.234:8080/avions",
					"protocol": "http",
					"host": [
						"172",
						"16",
						"0",
						"234"
					],
					"port": "8080",
					"path": [
						"avions"
					]
				}
			},
			"response": []
		},
		{
			"name": "http://172.16.0.234:8080/avions",
			"protocolProfileBehavior": {
				"disabledSystemHeaders": {
					"connection": true,
					"accept-encoding": true,
					"content-length": true,
					"host": true,
					"user-agent": true,
					"accept": true
				}
			},
			"request": {
				"method": "POST",
				"header": [
					{
						"key": "email",
						"value": "responsable@gmail.com",
						"type": "default"
					},
					{
						"key": "motdepasse",
						"value": "responsable",
						"type": "default"
					}
				],
				"url": {
					"raw": "http://172.16.0.234:8080/avions",
					"protocol": "http",
					"host": [
						"172",
						"16",
						"0",
						"234"
					],
					"port": "8080",
					"path": [
						"avions"
					]
				}
			},
			"response": []
		},
		{
			"name": "http://172.16.0.234:8080/responsables",
			"protocolProfileBehavior": {
				"disabledSystemHeaders": {
					"connection": true,
					"accept-encoding": true,
					"content-length": true,
					"host": true,
					"user-agent": true,
					"accept": true
				}
			},
			"request": {
				"method": "POST",
				"header": [
					{
						"key": "email",
						"value": "responsable@gmail.com",
						"type": "default"
					},
					{
						"key": "motdepasse",
						"value": "responsable",
						"type": "default"
					}
				],
				"url": {
					"raw": "http://172.16.0.234:8080/responsables",
					"protocol": "http",
					"host": [
						"172",
						"16",
						"0",
						"234"
					],
					"port": "8080",
					"path": [
						"responsables"
					]
				}
			},
			"response": []
		},
		{
			"name": "http://172.16.0.234:8080/avions",
			"request": {
				"method": "GET",
				"header": [],
				"url": {
					"raw": "http://172.16.0.234:8080/avions",
					"protocol": "http",
					"host": [
						"172",
						"16",
						"0",
						"234"
					],
					"port": "8080",
					"path": [
						"avions"
					]
				}
			},
			"response": []
		},
		{
			"name": "192.168.43.197:8080/avions",
			"request": {
				"method": "GET",
				"header": [],
				"url": {
					"raw": "192.168.43.197:8080/avions",
					"host": [
						"192",
						"168",
						"43",
						"197"
					],
					"port": "8080",
					"path": [
						"avions"
					]
				}
			},
			"response": []
		},
		{
			"name": "192.168.43.197:8080/avions",
			"request": {
				"method": "GET",
				"header": [],
				"url": {
					"raw": "192.168.43.197:8080/avions",
					"host": [
						"192",
						"168",
						"43",
						"197"
					],
					"port": "8080",
					"path": [
						"avions"
					]
				}
			},
			"response": []
		},
		{
			"name": "192.168.43.197:8080/avions",
			"request": {
				"method": "GET",
				"header": [],
				"url": {
					"raw": "192.168.43.197:8080/avions",
					"host": [
						"192",
						"168",
						"43",
						"197"
					],
					"port": "8080",
					"path": [
						"avions"
					]
				}
			},
			"response": []
		},
		{
			"name": "192.168.43.197:8080/vehicules",
			"request": {
				"method": "GET",
				"header": [],
				"url": {
					"raw": "192.168.43.197:8080/vehicules",
					"host": [
						"192",
						"168",
						"43",
						"197"
					],
					"port": "8080",
					"path": [
						"vehicules"
					]
				}
			},
			"response": []
		}
	]
}